<?xml version="1.0" standalone="no"?>
<!DOCTYPE svg PUBLIC "-//W3C//DTD SVG 1.1//EN" "http://www.w3.org/Graphics/SVG/1.1/DTD/svg11.dtd" >
<svg xmlns="http://www.w3.org/2000/svg">
<metadata>Generated by IcoMoon</metadata>
<defs>
<font id="icomoon" horiz-adv-x="1024">
<font-face units-per-em="1024" ascent="960" descent="-64" />
<missing-glyph horiz-adv-x="1024" />
<glyph unicode="&#x20;" d="" horiz-adv-x="512" />
<glyph unicode="&#xe600;" d="M512 563.2c-84.787 0-153.6-68.813-153.6-153.6 0-84.838 68.813-153.6 153.6-153.6 84.838 0 153.6 68.762 153.6 153.6 0 84.787-68.762 153.6-153.6 153.6zM921.6 716.8h-122.829c-16.896 0-35.123 13.107-40.448 29.133l-31.744 95.283c-5.427 16.077-23.603 29.184-40.499 29.184h-348.16c-16.896 0-35.123-13.107-40.397-29.133l-31.846-95.334c-5.325-16.026-23.501-29.133-40.397-29.133h-122.88c-56.32 0-102.4-46.080-102.4-102.4v-460.8c0-56.32 46.080-102.4 102.4-102.4h819.2c56.371 0 102.4 46.080 102.4 102.4v460.8c0 56.32-46.029 102.4-102.4 102.4zM512 153.6c-141.414 0-256 114.586-256 256 0 141.363 114.586 256 256 256 141.363 0 256-114.637 256-256 0-141.414-114.637-256-256-256zM885.76 542.822c-19.763 0-35.789 16.026-35.789 35.84s16.026 35.84 35.789 35.84c19.814 0 35.84-16.026 35.84-35.84s-16.026-35.84-35.84-35.84z" />
<glyph unicode="&#xe601;" d="M888.422 739.072c-158.925 105.677-337.357 142.182-548.966 81.562-165.171-47.36-316.57-235.213-328.294-396.083-13.875-190.208 134.298-353.075 395.162-352.819 281.293 0.307 386.56 135.373 388.915 176.384 2.304 41.062-109.773 116.941-37.632 194.97 90.368 97.741 170.803 14.438 219.546 26.214 48.742 11.674 73.421 161.843-88.73 269.773zM562.074 261.99c-42.547 0-77.056 34.406-77.056 76.8 0 42.445 34.509 76.8 77.056 76.8s77.005-34.355 77.005-76.8c-0.051-42.394-34.458-76.8-77.005-76.8z" />
<glyph unicode="&#xe602;" d="M927.846 785.050c-15.155 13.107-97.587 75.52-112.998 88.781s-39.475 17.050-56.474 17.050h-492.749c-16.947 0-41.062-3.738-56.422-17.050-15.411-13.312-97.843-75.725-112.998-88.781s-27.802-32.819-23.757-60.979c4.045-28.16 99.174-664.218 99.174-664.218 5.325-16.026 23.552-29.133 40.55-29.133h599.706c16.998 0 35.226 13.158 40.55 29.133 0 0 95.078 636.058 99.174 664.218 3.994 28.16-8.602 47.872-23.757 60.979zM512 339.558c-166.298 0-201.882 235.366-209.254 283.853h94.054c14.182-70.758 46.387-191.693 115.2-191.693s101.069 120.934 115.251 191.693h94.003c-7.373-48.486-42.957-283.853-209.254-283.853zM151.706 716.8l112.947 117.76h494.694l112.947-117.76h-720.589z" />
<glyph unicode="&#xe603;" d="M273.92-45.056h102.4l229.786 409.651h264.294c0 0 153.6 0 153.6 71.629 0 71.68-153.6 71.68-153.6 71.68h-264.294l-229.786 409.6h-102.4l127.386-409.6h-183.654l-115.251 102.451h-102.4l81.971-174.080-81.971-174.131h102.4l115.251 102.451h183.654l-127.386-409.651z" />
<glyph unicode="&#xe604;" d="M921.6 768h-51.2v-768h51.2c56.32 0 102.4 46.080 102.4 102.4v563.2c0 56.32-46.080 102.4-102.4 102.4zM0 665.6v-563.2c0-56.32 46.080-102.4 102.4-102.4h51.2v768h-51.2c-56.32 0-102.4-46.080-102.4-102.4zM686.080 875.162c-34.867 16.23-90.522 46.438-174.080 46.438s-139.213-30.208-174.080-46.438v-107.162h-112.64v-768h573.44v768h-112.64v107.162zM624.64 768h-225.28v68.352c27.29 11.776 66.458 23.808 112.64 23.808s85.299-11.981 112.64-23.757v-68.403z" />
<glyph unicode="&#xe605;" d="M778.189 512h-215.040v215.040c0 28.262-22.886 30.72-51.2 30.72-28.262 0-51.2-2.406-51.2-30.72v-215.040h-214.989c-28.314 0-30.72-22.938-30.72-51.2s2.406-51.2 30.72-51.2h214.989v-215.040c0-28.262 22.938-30.72 51.2-30.72 28.314 0 51.2 2.458 51.2 30.72v215.040h215.040c28.314 0 30.771 22.938 30.771 51.2s-2.458 51.2-30.771 51.2z" />
<glyph unicode="&#xe606;" d="M1013.76 716.8v61.44c0 22.63-18.381 40.96-40.96 40.96h-921.6c-22.63 0-40.96-18.33-40.96-40.96v-61.44h102.4v-102.4h-102.4v-102.4h102.4v-102.4h-102.4v-102.4h102.4v-102.4h-102.4v-61.44c0-22.63 18.33-40.96 40.96-40.96h921.6c22.579 0 40.96 18.33 40.96 40.96v61.44h-102.4v102.4h102.4v102.4h-102.4v102.4h102.4v102.4h-102.4v102.4h102.4zM399.36 307.2v307.2l256-153.6-256-153.6z" />
<glyph unicode="&#xe607;" d="M768 921.6h-512c-56.32 0-102.4-46.080-102.4-102.4v-716.8c0-56.32 46.080-102.4 102.4-102.4h512c56.371 0 102.4 46.080 102.4 102.4v716.8c0 56.32-46.029 102.4-102.4 102.4zM655.155 434.125c-12.134-18.944-18.586-10.854-14.95 0 9.626 28.57 9.267 115.046-71.27 127.693v-266.906c0-49.766-28.672-80.998-89.6-100.557-59.187-18.944-125.44 0.768-140.954 43.315-15.462 42.496 19.354 94.208 77.773 115.507 32.614 11.827 65.69 11.725 91.187 1.843v376.525h61.594c0-64.666 173.107-162.253 86.221-297.421z" />
<glyph unicode="&#xe608;" d="M614.4 870.399v-358.399h-204.799v358.399h-358.4v-819.2h921.599v819.2h-358.4z" />
<glyph unicode="&#xe609;" d="M563.087 460.8l384.056 384.057c14.108 14.108 14.108 36.979 0 51.087-7.053 7.054-16.298 10.581-25.544 10.581s-18.49-3.527-25.544-10.581l-384.056-384.057-384.056 384.056c-14.108 14.109-36.981 14.109-51.088 0s-14.107-36.979 0-51.087l384.057-384.056-384.056-384.056c-14.107-14.108-14.107-36.979 0-51.087 14.108-14.109 36.981-14.109 51.088 0l384.054 384.056 384.057-384.056c7.053-7.054 16.298-10.581 25.544-10.581s18.49 3.527 25.544 10.581c14.108 14.108 14.108 36.979 0 51.087l-384.057 384.056z" />
<glyph unicode="&#xe60a;" d="M758.784 233.062c-126.208 45.978-166.554 84.787-166.554 167.885 0 49.869 38.554 33.587 55.45 124.928 7.014 37.888 41.062 0.614 47.616 87.091 0 34.458-18.586 43.059-18.586 43.059s9.472 51.046 13.158 90.266c4.506 48.947-28.262 175.309-203.469 175.309-175.155 0-208.026-126.362-203.418-175.309 3.686-39.219 13.158-90.266 13.158-90.266s-18.637-8.55-18.637-43.059c6.502-86.477 40.55-49.203 47.565-87.091 16.947-91.341 55.501-75.059 55.501-124.928 0-83.098-40.346-121.907-166.554-167.885-126.669-46.080-208.896-93.133-208.896-125.235 0-32.051 0-107.776 0-107.776h962.56c0 0 0 75.725 0 107.776s-82.278 79.104-208.896 125.235z" />
<glyph unicode="&#xe60b;" d="M819.2 819.2h-614.4c-56.32 0-102.4-46.080-102.4-102.4v-358.4c0-56.32 46.080-102.4 102.4-102.4h204.8l204.8-153.6v153.6h204.8c56.32 0 102.4 46.080 102.4 102.4v358.4c0 56.32-46.080 102.4-102.4 102.4z" />
<glyph unicode="&#xe60c;" d="M898.304 180.838l-193.485 193.485c29.184 47.974 45.978 104.192 45.978 164.454 0 174.899-151.603 326.502-326.554 326.502-174.899 0-316.723-141.824-316.723-316.723 0-174.95 151.552-326.554 326.502-326.554 58.163 0 112.64 15.77 159.488 43.162l194.509-194.56c19.098-19.046 49.92-19.046 68.915 0l48.282 48.23c18.995 19.046 12.083 43.008-6.912 62.003zM205.005 548.557c0 121.088 98.15 219.29 219.238 219.29 121.139 0 229.069-107.93 229.069-229.069s-98.15-219.29-219.29-219.29-229.018 107.93-229.018 229.069z" />
<glyph unicode="&#xe60d;" d="M870.4 819.2h-46.080v-102.4h-163.84v102.4h-296.96v-102.4h-163.84v102.4h-46.080c-56.32 0-102.4-46.080-102.4-102.4v-614.4c0-56.32 46.080-102.4 102.4-102.4h716.8c56.32 0 102.4 46.080 102.4 102.4v614.4c0 56.32-46.080 102.4-102.4 102.4zM870.4 102.4h-716.8v409.6h716.8v-409.6zM317.44 921.6h-71.68v-174.080h71.68v174.080zM778.24 921.6h-71.68v-174.080h71.68v174.080z" />
<glyph unicode="&#xe60e;" d="M737.229 80.998c13.722-13.875 13.722-36.25 0-50.125s-35.891-13.875-49.613 0l-400.896 404.838c-13.722 13.875-13.722 36.301 0 50.125l400.896 404.89c13.722 13.875 35.891 13.875 49.613 0s13.722-36.25 0-50.125l-365.568-379.802 365.568-379.802z" />
<glyph unicode="&#xe60f;" d="M132.198 686.029c-13.875 13.722-36.301 13.722-50.125 0-13.824-13.67-13.824-35.891 0-49.613l404.89-400.896c13.875-13.722 36.25-13.722 50.125 0l404.89 400.896c13.824 13.722 13.875 35.891 0 49.613s-36.352 13.722-50.125 0.051l-379.853-365.619-379.802 365.568z" />
<glyph unicode="&#xe610;" d="M891.802 235.571c13.875-13.722 36.301-13.722 50.125 0 13.875 13.722 13.875 35.891 0 49.613l-404.89 400.896c-13.824 13.722-36.25 13.722-50.074 0l-404.89-400.896c-13.824-13.722-13.875-35.891 0-49.613s36.25-13.722 50.125 0l379.802 365.619 379.802-365.619z" />
<glyph unicode="&#xe611;" d="M286.704 80.998c-13.722-13.875-13.722-36.25 0-50.125s35.891-13.875 49.613 0l400.896 404.838c13.722 13.875 13.722 36.301 0 50.125l-400.896 404.89c-13.722 13.875-35.891 13.875-49.613 0s-13.722-36.25 0-50.125l365.568-379.802-365.568-379.802z" />
<glyph unicode="&#xe612;" d="M768.922 204.8l-0.051 165.274-758.63-0.051v181.914h758.682l-0.051 164.864 244.89-256z" />
<glyph unicode="&#xe613;" d="M512 952.32c-271.462 0-491.52-220.058-491.52-491.52s220.058-491.52 491.52-491.52 491.52 220.058 491.52 491.52-220.058 491.52-491.52 491.52zM711.885 549.632c0.205-4.147 0.307-8.346 0.307-12.544 0-127.898-97.382-275.405-275.456-275.405-54.63 0-105.574 15.974-148.378 43.52 7.578-0.922 15.309-1.331 23.091-1.331 45.363 0 87.091 15.462 120.269 41.472-42.342 0.768-78.131 28.774-90.47 67.174 5.888-1.126 11.981-1.741 18.176-1.741 8.858 0 17.408 1.178 25.498 3.379-44.237 8.909-77.67 48.026-77.67 94.925 0 0.41 0 0.819 0.051 1.178 13.056-7.219 28.006-11.571 43.827-12.083-25.907 17.357-43.008 46.95-43.008 80.589 0 17.766 4.762 34.406 13.107 48.691 47.718-58.624 119.091-97.178 199.526-101.171-1.638 7.066-2.509 14.438-2.509 22.067 0 53.453 43.366 96.819 96.819 96.819 27.853 0 52.992-11.725 70.656-30.566 22.067 4.301 42.803 12.339 61.491 23.45-7.27-22.579-22.579-41.574-42.598-53.555 19.61 2.355 38.246 7.526 55.603 15.258-12.954-19.405-29.44-36.454-48.333-50.125z" />
<glyph unicode="&#xe614;" d="M512 952.32c-271.462 0-491.52-220.058-491.52-491.52s220.058-491.52 491.52-491.52 491.52 220.058 491.52 491.52-220.058 491.52-491.52 491.52zM628.378 612.659h-73.882c-8.704 0-18.432-11.52-18.432-26.829v-53.35h92.365v-76.083h-92.365v-228.403h-87.245v228.403h-79.053v76.032h79.053v44.749c0 64.205 44.544 116.378 105.677 116.378h73.882v-80.896z" />
<glyph unicode="&#xe615;" d="M465.766 599.808c-12.339 43.52-32.307 56.371-63.386 56.371-3.328 0-6.707-0.461-9.933-1.331-13.517-3.84-24.166-15.104-30.106-31.744-6.093-16.896-6.502-34.56-1.178-54.63 9.421-35.84 34.918-61.901 60.672-61.901 3.328 0 6.707 0.461 9.933 1.331 28.006 7.936 45.619 50.842 33.997 91.904zM512 952.32c-271.462 0-491.52-220.058-491.52-491.52s220.058-491.52 491.52-491.52c271.514 0 491.52 220.058 491.52 491.52s-220.006 491.52-491.52 491.52zM483.686 249.754c-30.925-15.002-64.154-16.589-77.005-16.589-2.458 0-3.84 0.051-4.045 0.051 0 0-0.973 0-2.509 0-20.070 0-119.962 4.608-119.962 95.59 0 89.395 108.749 96.358 142.080 96.358h0.922c-19.2 25.702-15.206 51.61-15.206 51.61-1.69-0.102-4.198-0.205-7.219-0.205-12.595 0-36.813 1.997-57.6 15.462-25.446 16.333-38.349 44.237-38.349 82.893 0 109.107 119.091 113.51 120.32 113.562h118.938v-2.611c0-13.312-23.859-15.872-40.192-18.125-5.53-0.768-16.589-1.894-19.763-3.482 30.157-16.077 35.021-41.421 35.021-79.104 0-42.854-16.794-65.536-34.611-81.51-11.008-9.83-19.712-17.664-19.712-28.006 0-10.138 11.878-20.582 25.702-32.717 22.579-19.866 53.555-47.053 53.555-92.723 0-47.206-20.326-80.998-60.365-100.454zM743.782 461.261h-77.619v-77.619h-49.152v77.619h-77.619v49.152h77.619v77.568h49.152v-77.619h77.619v-49.101zM421.018 401.869c-2.662 0-5.325-0.102-7.987-0.307-22.733-1.638-43.725-10.189-58.931-24.013-15.053-13.619-22.682-30.771-21.606-48.179 2.253-36.352 41.37-57.702 88.781-54.272 46.746 3.379 77.875 30.259 75.571 66.662-2.202 34.253-31.949 60.109-75.827 60.109z" />
<glyph unicode="&#xe616;" d="M512 952.32c-271.462 0-491.52-220.058-491.52-491.52s220.058-491.52 491.52-491.52 491.52 220.058 491.52 491.52-220.058 491.52-491.52 491.52zM545.587 344.269c-31.488 2.458-44.698 18.074-69.376 33.075-13.619-71.27-30.157-139.571-79.36-175.206-15.155 107.674 22.323 188.518 39.68 274.33-29.645 49.869 3.584 150.323 66.099 125.594 76.954-30.464-66.662-185.549 29.747-204.954 100.659-20.224 141.722 174.643 79.309 237.978-90.163 91.494-262.451 2.099-241.254-128.922 5.171-32.051 38.195-41.728 13.21-85.965-57.702 12.8-74.957 58.317-72.704 118.989 3.584 99.379 89.242 168.909 175.155 178.586 108.698 12.134 210.688-39.885 224.819-142.131 15.821-115.456-49.101-240.384-165.325-231.373z" />
<glyph unicode="&#xe617;" d="M859.392 460.8c0 53.658 33.024 96 82.688 125.082-9.011 29.901-20.787 58.624-35.379 85.606-55.808-14.592-100.915 7.27-138.803 45.158-37.99 37.939-49.613 83.098-35.021 138.803-26.982 14.592-55.603 26.522-85.606 35.43-29.082-49.715-81.664-82.739-135.27-82.739s-106.138 33.024-135.27 82.739c-30.003-8.909-58.624-20.838-85.606-35.379 14.541-55.757 2.97-100.915-34.97-138.854-37.939-37.888-83.098-59.75-138.803-45.21-14.592-26.931-26.47-55.654-35.43-85.555 49.715-29.082 82.739-71.424 82.739-125.082 0-53.606-33.024-106.189-82.739-135.322 8.96-29.952 20.838-58.624 35.43-85.606 55.757 14.592 100.864 2.97 138.803-34.97 37.939-37.939 49.51-83.046 34.97-138.803 26.982-14.592 55.654-26.522 85.606-35.43 29.133 49.766 81.664 82.739 135.27 82.739s106.24-33.024 135.322-82.739c30.003 8.96 58.624 20.838 85.606 35.43-14.592 55.757-3.021 100.864 35.021 138.803 37.888 37.888 82.995 59.75 138.803 45.21 14.592 26.982 26.419 55.654 35.379 85.606-49.715 29.133-82.739 71.475-82.739 125.082zM512 273.766c-103.27 0-186.982 83.763-186.982 187.034s83.712 187.034 186.982 187.034c103.322 0 187.034-83.763 187.034-187.034s-83.712-187.034-187.034-187.034z" />
</font></defs></svg>